-------------------------------------------------------------------------------
Test set: com.transformxml.XSLTTranformationTest
-------------------------------------------------------------------------------
Tests run: 3, Failures: 0, Errors: 0, Skipped: 0, Time elapsed: 1.619 sec - in com.transformxml.XSLTTranformationTest
