-------------------------------------------------------------------------------
Test set: com.java.HazelCast.HazelCastCheckValuesTest
-------------------------------------------------------------------------------
Tests run: 3, Failures: 0, Errors: 0, Skipped: 0, Time elapsed: 1.931 sec - in com.java.HazelCast.HazelCastCheckValuesTest
